{
  "functions": {
    "api": {
      "handler": "app.app",
      "runtime": "python3.7"
    }
  },
  "routes": [
    { "handle": "filesystem" },
    {
      "src": "/(.*)",
      "dest": "app"
    }
  ]
}
